﻿thread_id;video_id;name;date;comment;likes
UgyfCn_EPBBDMGq5MgR4AaABAg;AaO2izXt2ww;Илья П.;2019-04-09T17:18:03.000Z;Даааааа уж...  Дизлайк и спасибо за розыгрыш покатаюсь на своей старой шкоде.;0
UgxJvvVIQEHPS-Wl--d4AaABAg;AaO2izXt2ww;Владимир Давыдов;2019-04-09T17:16:40.000Z;Отписка;0
UgyYB5-vAplUO2h8sOF4AaABAg;AaO2izXt2ww;дмтирий стефанов;2019-04-09T15:53:23.000Z;петух пацанов хочет кредитнуть  отписка! и вам советую давайте хоть раз кого то сольем я начинаю операцию отписка от блогера!! хоть представляете какая новость на ютубе  От давыдича отписываются люди теперь он у разбитого корыта ! и мем такой давыдч у разбитого корыта!)) ааххахахахах давайте сделаем это и площадка рухнет)) потому что без нас он не кто мы его хлеб и вода на данный момент! подумайте пацаны!  это прям в историю войдет Ютуба  давыдыч обанкрочен будет));1
UgyfN-X1BEw5cmgUkrF4AaABAg;AaO2izXt2ww;Денис Иванов;2019-04-09T12:10:48.000Z;Пусть мечты сбываютсяЖелаю иметь то что нравитсяВ весенний цветущий апрельСтать обладателем бмв тень.;0
UgzMAjyfwhb2rSZy6BV4AaABAg;AaO2izXt2ww;Андрей Ерихов;2019-04-09T10:28:51.000Z;Пошёл ставить на все видосы жирного дизлайки кто со мной?;3
UgzAahH-MD76Cznndel4AaABAg;AaO2izXt2ww;Vlad&Slav;2019-04-09T10:18:10.000Z;"Хотелось-бы поучаствовать но нет. Тупо нет возможности обеспечить машинке достойный уход... Дорогая машинка требует охрененно дорогого ухода иначе это просто варварство! Концовка видео вообще сентиментальная вышла донельзя! Кейт и Лео с ""Титаника"" грустят в сторонке. Понятно почему ролики тебе обходятся так дорого...Удач Эрик!!!";0
UgyGiQwR6bTRJc-iiQh4AaABAg;AaO2izXt2ww;Миру Правда;2019-04-09T09:52:37.000Z;пиздабол;1
UgzdEBq0uRwX52E12pB4AaABAg;AaO2izXt2ww;Миру Правда;2019-04-09T09:49:35.000Z;Кто не на видит Давидыча с тавь ЛАЙК;4
Ugwx9d2yxGIzdmlo3C94AaABAg;AaO2izXt2ww;zahar;2019-04-08T22:07:30.000Z;сними наушник виглядиш как идиот;1
UgzitmH9BpIHAtwgcK54AaABAg;AaO2izXt2ww;Азамат Кажаров;2019-04-08T21:13:50.000Z;Кто о чем . Но жаль что один из уникальных для меня машин  пропадёт;0
UgzT8FELBs1G2sj0tLV4AaABAg;AaO2izXt2ww;Егор Асташов;2019-04-08T20:49:08.000Z;А чё за трек в конце?;0
Ugx2Q5uzd_xbdlZ3IcR4AaABAg;AaO2izXt2ww;Vivers Game;2019-04-08T20:44:01.000Z;*ЧТО ЗА МУЗЫКА В КОНЦЕ ИГРАЛА??? ГДЕ ТАИ УУУ УУ УУ У*;0
UgwLnr-CbF7Riqt5faJ4AaABAg;AaO2izXt2ww;Никита Ануфриев;2019-04-08T20:36:22.000Z;Эх ты. А так много брал на себя 🤷‍♂️;0
UgxL-a36Jq8scUkzGJp4AaABAg;AaO2izXt2ww;Илья Ярый;2019-04-08T20:14:33.000Z;Это его дело что рекламировать.. Хороший мужик а вы неблагодарные нищеброды... Стыдно товарищи оч стыдно... И ему за вас..;0
UgyMGvSKvxk93Z6J-nR4AaABAg;AaO2izXt2ww;Temirlan Tarzhanov;2019-04-08T19:16:52.000Z;Нету возможности для Казахстана;0
UgyL9GnTS9THk444YUB4AaABAg;AaO2izXt2ww;Eduard Makharadze;2019-04-08T17:15:07.000Z;👌👍👍;0
UgzS8AHdIPtV8GxLsNp4AaABAg;AaO2izXt2ww;Дмитрий Конан;2019-04-08T16:26:31.000Z;1 х Жопа подливыча Азино три бмв;1
UgyLLyjM2ROObOUJKgJ4AaABAg;AaO2izXt2ww;Топовый Геймер;2019-04-08T16:14:48.000Z;Хуйню какую-то все несут! Давидыч красавчик снял видео рубанул бабосиков разве это плохо?  Да и тенькоф тоже не такой и уж гнида кредитка-это хорошее средство в руках умного человека а дебик который просрочил платёж потом говорит мол ебать деньги требует и Т. Д. Давидыч крос!;0
UgydtkQusXmK5Ot6p_F4AaABAg;AaO2izXt2ww;111 111;2019-04-08T15:28:46.000Z;Да ладно пофиг тень это или не тень главное что машина. То что он рекламирует банк делает он в свою пользу это партнерская программа. В любом случает это выбор каждого регать карту или нет. Вообще я в розыгрыши не верю. Известно каждому что это все для привлечения клиентов. Если все по честному и если кто и выиграет я все равно за них буду рад).;0
Ugzv_MP0jFovnlY5vbx4AaABAg;AaO2izXt2ww;Влад Могутов;2019-04-08T15:04:10.000Z;Моя мечта на всю.жизнь ）;0
Ugz_bn9yCJ0ZJCDmT0p4AaABAg;AaO2izXt2ww;adam riti;2019-04-08T14:23:24.000Z;Отписка👎 телепузикчик;0
UgxwvqsYtNpm0HlTPJp4AaABAg;AaO2izXt2ww;Valentin U;2019-04-08T13:02:30.000Z;Отписываюсь! Сломали парня(;0
UgwaggnIwUK0etO3-SV4AaABAg;AaO2izXt2ww;Ерлан Садвакасов;2019-04-08T11:06:52.000Z;Саламалейкум.есть варик в Казахстан забрать М ку ? Если чё могу приехать забрать.у нас тинкоф не дышит просто.✊;0
UgwVN_AItLTMbX1UptB4AaABAg;AaO2izXt2ww;Иван Чигров;2019-04-08T06:39:38.000Z;Фуру дизов завозим шлюхидычу;0
UgyqZNtdZEPGSgx6SMF4AaABAg;AaO2izXt2ww;The Mstr MSA;2019-04-08T06:06:37.000Z;КПЦ дизлайков больше чем дайков!!!;0
Ugw_xSKHek1-frKi2994AaABAg;AaO2izXt2ww;Миха Маев 12;2019-04-08T04:21:05.000Z;Да покинуло нас сердце.;0
Ugy-q4vbWtUifkf2h2d4AaABAg;AaO2izXt2ww;Anatoly Kolchugin;2019-04-07T23:58:26.000Z;зачем тебе этот зашквар с банками?;0
Ugy17KzKlK1_EoPsmnJ4AaABAg;AaO2izXt2ww;TheKacape3;2019-04-07T20:54:11.000Z;Вот и настал тот момент! Канал дно! Очень жаль клоуна!;0
Ugyj5T-cK5rQuw8UkEp4AaABAg;AaO2izXt2ww;Дима Довганюк;2019-04-07T20:11:52.000Z;Привет о такой машине можно только мечтать сам езжу на Жигулях;0
UgwYriRhlF1KUSa7kQx4AaABAg;AaO2izXt2ww;Мука Мята;2019-04-07T19:19:22.000Z;"Настоящий эрик картман ;D";0
Ugya6JsdU-nr-t3R9QR4AaABAg;AaO2izXt2ww;Дмитрий Разящий;2019-04-07T18:35:52.000Z;если кто то и верил в его невиновность то теперь точно нет. вышел и сразу сменил бутылку на бутылку от тинькова;0
UgwkZ7Hx0sBXAyLcQYZ4AaABAg;AaO2izXt2ww;sanek36rus;2019-04-07T17:50:21.000Z;Петух 🐓 продажный !;1
UgzzrZDDf1Lyy5qiWf94AaABAg;AaO2izXt2ww;Максим Шкляев;2019-04-07T17:46:28.000Z;Какие же люди бывают тупые. На сколько же глупо хейтить человека за рекламу. Реклама - хлеб тогокто делает видео для вас же. Человек живёт путешествует где снимает видео для ВАС же  покупает оборудование. Ему делать это без денег? Жрать дошики? Встаньте на место блогеров и задумайтесь...;0
UgzNKBCM_w5evpSm6M54AaABAg;AaO2izXt2ww;Антон Степанов;2019-04-07T17:27:08.000Z;Привет гнида;1
Ugx-O8qmddTjQS-P_Mp4AaABAg;AaO2izXt2ww;Skobar;2019-04-07T16:31:31.000Z;да иди ты сам на хуй!!! вместе с банком этого пивовара конченого!!!!!  все таки продал жопу...эх ты.....;0
UgwNGJE4H_kkaPd7p1t4AaABAg;AaO2izXt2ww;Ильнур Ахметшин;2019-04-07T14:49:06.000Z;Ну ты и конченный;0
Ugyd70tJN7HdIIMrKgN4AaABAg;AaO2izXt2ww;Дмитрий;2019-04-07T14:43:19.000Z;Я бы на продажу выставил. отдавать еще кому то;0
UgxcLThxj7mUiPzoITN4AaABAg;AaO2izXt2ww;Дмитрий;2019-04-07T14:37:28.000Z;Тиньков же главные наебатор и у него ссаный банк;0
Ugy5FCMdbm3nBZgp5At4AaABAg;AaO2izXt2ww;Den4ik;2019-04-07T14:21:40.000Z;печальная история об опустившемся эрике :(;1
Ugy2eDqivMtB0eEZRit4AaABAg;AaO2izXt2ww;Александр Кочетков;2019-04-07T14:14:31.000Z;Да уж Давыдыч иди ты сам на хуй пидор Толстый и карту в очко своё вставь;0
UgwztYmEYtswZymli9d4AaABAg;AaO2izXt2ww;Дмитрий А.;2019-04-07T12:49:56.000Z;Бля давидыч да ты чёрт оказывается а я то думал нахуя тинькову орех лизнул...;0
UgwxcuJitNi9uPjkqKt4AaABAg;AaO2izXt2ww;Yoshi Ro;2019-04-07T11:40:37.000Z;"Комментарии ох уж эти автолюбители на ладахvestasport от себя скажу как было приятно смотреть обзоры так и по сей день такие же ощущения. Отдать свою крошку в которую было вложено столько сил денег и времени... Продался отписка мать гори в аду. Вы чё совсем ебанулись животные дырявые? Да кому на вас не похуй пиздуйте лесом что вы есть что вас нету. Что-то поменяется? Ебать вы переоцениваете себя и свои возможности вы никто и звать вас никак :D А те кто ценят обзоры за атмосферу и вот эту самую ламповость остануться и дальше на этом проекте. Ведь пустой пиздёж про машину читая с листочка AcademeG и прочий ""контент"" может делать каждый. Вообщем дорогие хейтеры я ваших матерей ебал)))";0
UgyQjDVITkGBVHxu-sB4AaABAg;AaO2izXt2ww;ДИЧЬ TV;2019-04-07T10:18:23.000Z;Не думал что Давидыча столько  мамкины борцов за справедливость смортрит.;0
UgxwpIEFIPlTL3FNbsV4AaABAg;AaO2izXt2ww;Аким Керимов;2019-04-07T08:16:26.000Z;Что песня в конце?;0
UgzK5NNHejaXusXMOzN4AaABAg;AaO2izXt2ww;Мерс Мерс;2019-04-07T02:39:44.000Z;🤣🤣🤣🤣😂😂😂😂😂😂;0
UgxAxPVCNOIedpCR2yl4AaABAg;AaO2izXt2ww;Надир Надиров;2019-04-07T01:59:49.000Z;Лох пидр;0
UgztB6KqCKNqYqgkfNZ4AaABAg;AaO2izXt2ww;Hisтория Mаrгинаlов;2019-04-07T01:37:32.000Z;Да блять ПРОДАЛСЯ КОКОКО КЛЕЙМО ПРОДАНО КОКОКО КОКОКОКОКО .Пацаны вы тип совсем ?Челик с зоны вышел вы думаете у него просто деньги из воздуха появятся ?Дэбили .В рекламе нет ничего плохого особенно если это не казино или рулетки .Скажите спасибо за то что он повысил качество съёмки и за то что он не пихает вам всякое говно а рекламирует блять Банк  .;0
Ugy2bmkdaKGc1sIqT-B4AaABAg;AaO2izXt2ww;The Shtorin;2019-04-06T23:01:34.000Z;сток баранов в комментах))) Эрик красава) делай вещщи!;0
UgywSlUedi-JzQ3cJg94AaABAg;AaO2izXt2ww;Установочная студия AvtoBox;2019-04-06T22:11:34.000Z;гнильё нам тут впихивают . пошел ты н.х Тиньков;0
UgzKAsRVmaRbG4HnW7V4AaABAg;AaO2izXt2ww;Big Player185;2019-04-06T21:20:35.000Z;оставь себе тачку шкура;1
UgygnlZ8LLCH17daRx14AaABAg;AaO2izXt2ww;Вова Вова;2019-04-06T20:38:43.000Z;Странно ауе не кричит ну а чаечку за теньков легко;0
UgwGnSHuU9ByeURPOTZ4AaABAg;AaO2izXt2ww;# РВК;2019-04-06T20:03:17.000Z;хуйня полнейшая;0
Ugxj3Yo9q6CiPmZUPGJ4AaABAg;AaO2izXt2ww;Евгений Кузнецов;2019-04-06T19:42:08.000Z;Z;0
UgwDev_wZ10LcN0NDIZ4AaABAg;AaO2izXt2ww;ебанариум рф;2019-04-06T16:20:11.000Z;Подливыч + Баста ПРОДАНО;1
UgyeMXuT_MOLnsQ9KeB4AaABAg;AaO2izXt2ww;ебанариум рф;2019-04-06T16:05:55.000Z;Идешь нахуй со своей тачкой!!!;1
Ugyz9lhMRllKDf6-jRt4AaABAg;AaO2izXt2ww;Ayaz Mamedov;2019-04-06T15:37:52.000Z;На халяву думали выиграть!;1
Ugx6CdVkWLzqKG4rekt4AaABAg;AaO2izXt2ww;Yuriy Starik;2019-04-06T14:53:54.000Z;Очки одел сцыш смотреть людям в глаза ?;1
UgxKsEPzZ4txt9gMAlV4AaABAg;AaO2izXt2ww;ХЗ КТО;2019-04-06T09:45:54.000Z;Жду с нетерпением конкурсов от 1хбет азино777. Еще про пенсионную рефому что-нибудь пиздани как твой сопливый кореш Баста.;1
UgxMnpB0RadYVuVD8eh4AaABAg;AaO2izXt2ww;Amoral RUS;2019-04-06T07:57:46.000Z;А ненавидеть Тинькова это модно сейчас? За то что он сказал что блогеры мать свою готовы продать? Ну так он прав они сейчас то опционы рекламируют то хуйбеты всякие то кейсы и прочую дичь. У его кредиток в договоре хотя бы условия использования прописаны а те кто их прочёл и соблюдает ещё и заработать может на этом. Ну и каша у вас в голове товарищи.;1
UgyY_bFFCpXQQWTwAAl4AaABAg;AaO2izXt2ww;Amoral RUS;2019-04-06T07:45:38.000Z;Тот случай когда есть дебетовая карта и пох что думает сам тинькофф про блогеров но не проходит регистрация для участия хотя в правилах чётко написано что и с обычной дебетовой картой можно участвовать.;0
Ugw6_-vBZzssN16x3lJ4AaABAg;AaO2izXt2ww;MOLODOY CHELOVEK;2019-04-06T05:24:34.000Z;Ты долбаеб;1
UgyYehwWFPp2us7pyFh4AaABAg;AaO2izXt2ww;Cheshirekdcat;2019-04-06T00:30:59.000Z;"Вот они - истинные фанаты  Давыдыча! А т.е обосанная петушня которая сразу же закукарекала про ""продался"". Блядь я хоть и хейчу его(Давыдыча) но сука и то так низко не падал как этот сброд.  Пиздец оскорблять из-за рекламы банка ебаная шкила обосаная. Пиздуйте тогда с интернета  ибо здесь всё и вся рекламируют. Обоссыши!  Я даже на хуй лайк въебу! Тупа стыдоба за такой биомусор... P.S. слишком много обоссышей ну что поделать если вам нравится когда  вам ссут в рот дегройды";0
UgyRgohqaa7eqQfqh754AaABAg;AaO2izXt2ww;TheDima29;2019-04-05T23:07:11.000Z;Позор тебепродажная шкура...;1
UgwH6hw1TR6ekXI-WkF4AaABAg;AaO2izXt2ww;Обзорщик Распаковщик;2019-04-05T22:13:22.000Z;продажное дерьмо;1
UgyUOcIwXZJ_xRz-w154AaABAg;AaO2izXt2ww;Иди нахуй.;2019-04-05T20:07:18.000Z;За 7 минут всё себе подосрал.;2
UgyXwj6fn3MXFnLjhdJ4AaABAg;AaO2izXt2ww;Вова Вова;2019-04-05T19:37:49.000Z;Хм интересно сколько он ему заплатил 5 или больше муликов;1
Ugx4hNAHd1XKLSS0enR4AaABAg;AaO2izXt2ww;ПОТАПОВ МОЖЕТ;2019-04-05T18:47:26.000Z;Иди на хуй!;2
UgwsOoJpfHDH3yVzd6V4AaABAg;AaO2izXt2ww;Tyoma Habibulin;2019-04-05T17:40:41.000Z;Дизлайк и отписка;1
UgyXgYwwbikLCGZYRyh4AaABAg;AaO2izXt2ww;Роман Ворончихин;2019-04-05T17:32:40.000Z;спасибо за камменты вам всем. доставляют они неимоверно)));1
UgwRTRzXkAeOrdq3E2J4AaABAg;AaO2izXt2ww;Вика Шурпач;2019-04-05T17:05:34.000Z;Как учавствовать с конкурсе емли я живу в Беларуси и у нас Тинькоф банка нет.....как то не честно получается выйграть тоже хочется...печально...;0
UgwERPl3bsrhRKkAelB4AaABAg;AaO2izXt2ww;Олег Горяйнов;2019-04-05T15:34:11.000Z;А за сколько Тинькофф купили эту тачку?;0
UgyICwfUTz85mrIzVXB4AaABAg;AaO2izXt2ww;PizdationNews 25;2019-04-05T14:36:01.000Z;Репутацию тухлодыра ты уже не смоешь.В тюрьме петухом был-петухом и остался;0
UgzFYJuG6l9GE9OvSy94AaABAg;AaO2izXt2ww;Eltsin'79 Elts;2019-04-05T13:44:42.000Z;Очень честно. Спс блядь! Я гб2 д 180000₽ торчу они сидят и ждут суки когда я карту хоть какую нибудь заведу;0
Ugx2vnRrlCMOkVbuand4AaABAg;AaO2izXt2ww;Андрей Мерц;2019-04-05T13:33:31.000Z;Фу блядьпердак Продал;0
Ugy5NexWOPqF3pkwXTN4AaABAg;AaO2izXt2ww;Валерій Корнієв;2019-04-05T13:23:58.000Z;Жаль что продался((( я думал ты сильнее!;0
UgxMypJSiGZwmGYY5XR4AaABAg;AaO2izXt2ww;THE Вид;2019-04-05T11:23:19.000Z;Сожги её нахуй вместе со своей картой )))ТШОРТ ТЫ ЖИРНЫЙ ОЧКИ ОДЕЛ ЧТОБ ГЛАЗА НЕ ПОКАЗЫВАТЬ СВОИ ГОНДОН ИДИ НАХУЙ !!!;0
UgxwclEEe7j6vAmmbch4AaABAg;AaO2izXt2ww;Олег Медведев;2019-04-05T10:36:30.000Z;пидорас;0
UgwzxUOOtTiBgS-QYG54AaABAg;AaO2izXt2ww;Gotham Knight;2019-04-05T09:41:07.000Z;Гнида толстопузая членосос тупо!) Отписался от гниды убогой.;0
Ugx5WEZTQrSGnhuQz5R4AaABAg;AaO2izXt2ww;Дима Щебёнка;2019-04-05T05:39:12.000Z;Иди нахуй со своим тиньковым рожа ты продажная!!!;0
UgxFJSoEy_OGDYbO4r94AaABAg;AaO2izXt2ww;Semetskii;2019-04-05T04:59:11.000Z;🤣где-то тихонько посмеивается администратор гостиницы в Самаре 🤣;5
Ugymit6lJpYFrJL0qsF4AaABAg;AaO2izXt2ww;Серёжа Тихонюк;2019-04-04T22:39:16.000Z;ОТПИСКА;1
UgzwhBVjT-tsGZLqq9l4AaABAg;AaO2izXt2ww;Серёжа Тихонюк;2019-04-04T22:38:10.000Z;бляяяяя и ты продался!? НАХУЯ? Тинькoooffff?;1
UgziZEBmPnpT_Qiz5R54AaABAg;AaO2izXt2ww;S.Vorobyev cherepovets;2019-04-04T21:55:34.000Z;Все думали выйдет Давидыч АУЕ а вышел подливычь;4
UgxT7RmztvslvBSGAb14AaABAg;AaO2izXt2ww;Blackriverfbs;2019-04-04T21:49:57.000Z;ПОВИДЛЫЧ ХУЙЛО;0
UgxBUlq6Prmp1J_8MOF4AaABAg;AaO2izXt2ww;Виссарион Бельских;2019-04-04T20:32:22.000Z;прав был Тиньков !маму не продал но свою девочку разыграл..;2
Ugxi1Ioiov0ktVM8LS14AaABAg;AaO2izXt2ww;Чубайра Чубайра;2019-04-04T19:33:21.000Z;козёлно смотреть буду;0
UgwQejgQcpjRDgdFI1t4AaABAg;AaO2izXt2ww;Чубайра Чубайра;2019-04-04T19:32:59.000Z;как же глупо снято.про тинькоф видно читает по бумажке но в очках;0
Ugwq4YEZx0Ej5N3in0p4AaABAg;AaO2izXt2ww;Vadya fedchyk;2019-04-04T19:23:02.000Z;Я би хотел виграть ее но я в Украине и шансов у меня нет;0
UgzmZHqCdKJxC9kqmCZ4AaABAg;AaO2izXt2ww;Миша Ха;2019-04-04T18:51:02.000Z;Сказочный ДОЛБОЗВОНЧИК!!!!;1
Ugw06dackUpGBmVkowR4AaABAg;AaO2izXt2ww;Руслан Руслан;2019-04-04T17:16:56.000Z;Все нижеперечисленные комментаторы - вы просто все неудачники:);0
Ugy8qq6i7qq1F-mtYfx4AaABAg;AaO2izXt2ww;Danyaredbear;2019-04-04T16:45:54.000Z;Круто я участвую 😘👍👍👍;0
UgxTco4N_9UDAWl7Jj14AaABAg;AaO2izXt2ww;Mr. Angry;2019-04-04T15:23:58.000Z;Прощай пиздабол)))));1
Ugxf8XDDYmSV1ra9G114AaABAg;AaO2izXt2ww;Костя Тюрин;2019-04-04T14:28:08.000Z;Продажная лошадь в очках вытери бороду вся коричневая! )));3
UgxaErDULMjxGvi5bwZ4AaABAg;AaO2izXt2ww;Артём Громилов;2019-04-04T13:44:12.000Z;А если у меня нету водительских прав НО Я ОБУЧАЮСЬ НА НИХ Я могу участвовать ?;1
UgzzQ0RPUMX-Bog2mNR4AaABAg;AaO2izXt2ww;_MEXICANEC _;2019-04-04T12:57:36.000Z;Зависть - википедия в помощь всем вам кто пишет херомантию про то что он продался! Не вижу ничего плохого в том чтобы зарабатывать. Я бы так же делал после всего того что с ним произошло! Люди вы прежде чем сидеть и флудить в инете задайте себе вопрос: а сами вы вообще кто? Что вы сделали и что представляете собой? В глаза сказать сможете? Дай Бог вам здоровья!;0
UgwZ3dMs_BIO00a9z4d4AaABAg;AaO2izXt2ww;Александр Петров;2019-04-04T12:52:53.000Z;Хорошо папа не видит каким сын стал выродком;1
UgwpKe8OawdCmEjuZsJ4AaABAg;AaO2izXt2ww;Мистер Смит;2019-04-04T11:54:13.000Z;137 тыс дизов;1
Ugzl0yysBFHRgL_D7sh4AaABAg;AaO2izXt2ww;Вовандос Ковальский;2019-04-04T10:39:02.000Z;почитал про розыгрыш и шансы.... Давидыч я бы конечно хотел эту тачку я бы с нее пылинки сдувал и выкатывал по выходным и большим праздникам но  я не буду участвовать!!!!  Я НЕ ХОЧУ ПОКУПАТЬ СЕБЕ ШАНС НА ПОБЕДУ!!!! именно ПОКУПАТЬ!!!!!!;0
Ugxs6CoVMKF8WSU5nNV4AaABAg;AaO2izXt2ww;Димитрий;2019-04-04T10:37:14.000Z;Не пользуйтесь кредитными картами и кредитами в принципе (если это не острая необходимость в жилье конечно) Живите своими деньгами и своим умом. Давидыч упал очень низко.;4